<?xml version="1.0" encoding="utf-8"?>
<!-- Generator: Adobe Illustrator 22.0.0, SVG Export Plug-In . SVG Version: 6.00 Build 0)  -->
<svg version="1.1" id="Layer_1" xmlns="http://www.w3.org/2000/svg" xmlns:xlink="http://www.w3.org/1999/xlink" x="0px" y="0px"
	 viewBox="0 0 640 512" style="enable-background:new 0 0 640 512;" xml:space="preserve">
<style type="text/css">
	.st0{fill:#FFFFFF;}
</style>
<path class="st0" d="M576,64H205.3c-17,0-33.3,6.7-45.3,18.8L9.4,233.4c-12.5,12.5-12.5,32.8,0,45.2L160,429.2
	c12,12,28.3,18.8,45.2,18.8H576c35.3,0,64-28.6,64-64V128C640,92.7,611.3,64,576,64z M491.3,318.1c6.2,6.2,6.2,16.4,0,22.6
	l-22.6,22.6c-6.2,6.2-16.4,6.2-22.6,0L384,301.2l-62.1,62.1c-6.2,6.2-16.4,6.2-22.6,0l-22.6-22.6c-6.2-6.2-6.2-16.4,0-22.6
	l62.1-62.1l-62.1-62.1c-6.2-6.2-6.2-16.4,0-22.6l22.6-22.6c6.2-6.2,16.4-6.2,22.6,0l62.1,62.1l62.1-62.1c6.2-6.2,16.4-6.2,22.6,0
	l22.6,22.6c6.2,6.2,6.2,16.4,0,22.6L429.2,256L491.3,318.1z"/>
</svg>
